{
	"name":"Blast Wand",
	"description":"+20 AP",
	"price": "$850",
	"stocks": "2",
	"is Active": true,
	"SKU": "BLSTWND850"
},
{
	"name":"Infinity Edge",
	"description":"+75 AD",
	"price": "$1250",
	"stocks": "0",
	"is Active": false,
	"SKU": "INFEDG75"
},
{
	"name":"BF Sword",
	"description":"+60 AD",
	"price": "$1000",
	"stocks": "3",
	"is Active": true,
	"SKU": "BFCKNSRD601000"
}